…
Flattening: Making the nested hiearchical data structure into a flatter structure by assigning each of the nested variable as its own column as much as possible.

Tibble: Making it easier to see the data frame data

# selecting cards information
cards <- trello$cards # list of 1

# flattening
cards_flat <- flatten(cards) #list of 37

# tibble time
cards_flat_tbl <- as_tibble(cards_flat) # 32 obs of 37 variables
cards_flat_tbl

## # A tibble: 32 x 37
##    id    address checkItemStates closed coordinates creationMethod
##    <chr> <lgl>   <lgl>           <lgl>  <lgl>       <lgl>         
##  1 5eb0… NA      NA              FALSE  NA          NA            
##  2 5eb0… NA      NA              FALSE  NA          NA            
##  3 5eb0… NA      NA              FALSE  NA          NA            
##  4 5eb0… NA      NA              FALSE  NA          NA            
##  5 5eb0… NA      NA              FALSE  NA          NA            
##  6 5eb0… NA      NA              FALSE  NA          NA            
##  7 5eb0… NA      NA              FALSE  NA          NA            
##  8 5eb0… NA      NA              FALSE  NA          NA            
##  9 5eb0… NA      NA              FALSE  NA          NA            
## 10 5eb0… NA      NA              FALSE  NA          NA            
## # … with 22 more rows, and 58 more variables: dateLastActivity <chr>,
## #   desc <chr>, descData <lgl>, dueReminder <int>, idBoard <chr>,
## #   idLabels <list>, idList <chr>, idMembersVoted <list>, idShort <int>,
## #   idAttachmentCover <chr>, locationName <lgl>, manualCoverAttachment <lgl>,
## #   name <chr>, pos <dbl>, shortLink <chr>, isTemplate <lgl>,
## #   badges$attachmentsByType$trello$board <int>, $$$card <int>,
## #   $location <lgl>, $votes <int>, $viewingMemberVoted <lgl>,
## #   $subscribed <lgl>, $fogbugz <chr>, $checkItems <int>,
## #   $checkItemsChecked <int>, $checkItemsEarliestDue <lgl>, $comments <int>,
…
cards_trim <- cards_flat_tbl %>%
  select(-address, -checkItemStates, -coordinates, -creationMethod, -descData, -dueReminder,
         -idAttachmentCover, -idBoard, -idLabels, -idMembersVoted, -limits, -locationName, -manualCoverAttachment,
         -(pos:badges), -(email:idMembers), -subscribed, -url, -cover, -pluginData, -customFieldItems) %>%
  arrange(desc(dateLastActivity)) %>%
  select(id, idShort, idList, dateLastActivity, name, desc, dueComplete, due,
         labels, attachments, shortUrl, closed)

cards_trim

## # A tibble: 32 x 12
##    id    idShort idList dateLastActivity name  desc  dueComplete due   labels
##    <chr>   <int> <chr>  <chr>            <chr> <chr> <lgl>       <chr> <list>
##  1 5eb0…      10 5eb0d… 2020-05-05T02:4… Risk… ""    FALSE       <NA>  <df[,…
##  2 5eb0…      13 5eb0d… 2020-05-05T02:4… Upco… ""    FALSE       <NA>  <df[,…
##  3 5eb0…       6 5eb0d… 2020-05-05T02:4… All … ""    FALSE       <NA>  <df[,…
##  4 5eb0…      14 5eb0d… 2020-05-05T02:4… Prod… ""    FALSE       <NA>  <df[,…
##  5 5eb0…      11 5eb0d… 2020-05-05T02:4… Fina… ""    FALSE       <NA>  <df[,…
##  6 5eb0…       8 5eb0d… 2020-05-05T02:4… KPIs… "###… FALSE       <NA>  <df[,…
##  7 5eb0…      16 5eb0d… 2020-05-05T02:4… Metr… ""    FALSE       <NA>  <df[,…
##  8 5eb0…      15 5eb0d… 2020-05-05T02:4… Peri… ""    FALSE       <NA>  <df[,…
##  9 5eb0…      12 5eb0d… 2020-05-05T02:4… Huma… ""    FALSE       <NA>  <df[,…
## 10 5eb0…       9 5eb0d… 2020-05-05T02:4… Key … ""    FALSE       <NA>  <df[,…
## # … with 22 more rows, and 3 more variables: attachments <list>,
## #   shortUrl <chr>, closed <lgl>
…
## Warning: `cols` is now required.
## Please use `cols = c(labels)`

# joining back with main cards data frame
ct_labels <- left_join(cards_trim %>% select(-labels), labels_info %>% select(-labelList))

## Joining, by = c("id", "idShort")

ct_labels

## # A tibble: 32 x 12
##    id    idShort idList dateLastActivity name  desc  dueComplete due  
##    <chr>   <int> <chr>  <chr>            <chr> <chr> <lgl>       <chr>
##  1 5eb0…      10 5eb0d… 2020-05-05T02:4… Risk… ""    FALSE       <NA> 
##  2 5eb0…      13 5eb0d… 2020-05-05T02:4… Upco… ""    FALSE       <NA> 
##  3 5eb0…       6 5eb0d… 2020-05-05T02:4… All … ""    FALSE       <NA> 
##  4 5eb0…      14 5eb0d… 2020-05-05T02:4… Prod… ""    FALSE       <NA> 
##  5 5eb0…      11 5eb0d… 2020-05-05T02:4… Fina… ""    FALSE       <NA> 
##  6 5eb0…       8 5eb0d… 2020-05-05T02:4… KPIs… "###… FALSE       <NA> 
##  7 5eb0…      16 5eb0d… 2020-05-05T02:4… Metr… ""    FALSE       <NA> 
##  8 5eb0…      15 5eb0d… 2020-05-05T02:4… Peri… ""    FALSE       <NA> 
##  9 5eb0…      12 5eb0d… 2020-05-05T02:4… Huma… ""    FALSE       <NA> 
## 10 5eb0…       9 5eb0d… 2020-05-05T02:4… Key … ""    FALSE       <NA> 
## # … with 22 more rows, and 4 more variables: attachments <list>,
## #   shortUrl <chr>, closed <lgl>, labelList_tidy <chr>
…
## # A tibble: 0 x 3
## # … with 3 variables: Task_Id <int>, Attachment_URL <chr>,
## #   Attachment_Error <chr>

# converts the attachment column to a categorical variable in the main cards data frame
ct_labels <- ct_labels %>%
  mutate(attachments = ifelse(idShort %in% att_urls$idShort, TRUE, FALSE))
ct_labels

## # A tibble: 32 x 12
##    id    idShort idList dateLastActivity name  desc  dueComplete due  
##    <chr>   <int> <chr>  <chr>            <chr> <chr> <lgl>       <chr>
##  1 5eb0…      10 5eb0d… 2020-05-05T02:4… Risk… ""    FALSE       <NA> 
##  2 5eb0…      13 5eb0d… 2020-05-05T02:4… Upco… ""    FALSE       <NA> 
##  3 5eb0…       6 5eb0d… 2020-05-05T02:4… All … ""    FALSE       <NA> 
##  4 5eb0…      14 5eb0d… 2020-05-05T02:4… Prod… ""    FALSE       <NA> 
##  5 5eb0…      11 5eb0d… 2020-05-05T02:4… Fina… ""    FALSE       <NA> 
##  6 5eb0…       8 5eb0d… 2020-05-05T02:4… KPIs… "###… FALSE       <NA> 
##  7 5eb0…      16 5eb0d… 2020-05-05T02:4… Metr… ""    FALSE       <NA> 
##  8 5eb0…      15 5eb0d… 2020-05-05T02:4… Peri… ""    FALSE       <NA> 
##  9 5eb0…      12 5eb0d… 2020-05-05T02:4… Huma… ""    FALSE       <NA> 
## 10 5eb0…       9 5eb0d… 2020-05-05T02:4… Key … ""    FALSE       <NA> 
## # … with 22 more rows, and 4 more variables: attachments <lgl>, shortUrl <chr>,
## #   closed <lgl>, labelList_tidy <chr>
…
# joining back with main cards data frame
ct_labels_list <- left_join(ct_labels, lists_trim) %>%
  select(id:shortUrl, labelList_tidy:nameList, closed, closedList)

## Joining, by = "idList"

ct_labels_list

## # A tibble: 32 x 14
##    id    idShort idList dateLastActivity name  desc  dueComplete due  
##    <chr>   <int> <chr>  <chr>            <chr> <chr> <lgl>       <chr>
##  1 5eb0…      10 5eb0d… 2020-05-05T02:4… Risk… ""    FALSE       <NA> 
##  2 5eb0…      13 5eb0d… 2020-05-05T02:4… Upco… ""    FALSE       <NA> 
##  3 5eb0…       6 5eb0d… 2020-05-05T02:4… All … ""    FALSE       <NA> 
##  4 5eb0…      14 5eb0d… 2020-05-05T02:4… Prod… ""    FALSE       <NA> 
##  5 5eb0…      11 5eb0d… 2020-05-05T02:4… Fina… ""    FALSE       <NA> 
##  6 5eb0…       8 5eb0d… 2020-05-05T02:4… KPIs… "###… FALSE       <NA> 
##  7 5eb0…      16 5eb0d… 2020-05-05T02:4… Metr… ""    FALSE       <NA> 
##  8 5eb0…      15 5eb0d… 2020-05-05T02:4… Peri… ""    FALSE       <NA> 
##  9 5eb0…      12 5eb0d… 2020-05-05T02:4… Huma… ""    FALSE       <NA> 
## 10 5eb0…       9 5eb0d… 2020-05-05T02:4… Key … ""    FALSE       <NA> 
## # … with 22 more rows, and 6 more variables: attachments <lgl>, shortUrl <chr>,
## #   labelList_tidy <chr>, nameList <chr>, closed <lgl>, closedList <lgl>
…
